digraph models_diagram {
    graph[rankdir=LR, overlap=false, splines=true]
    link2  [label="Contains",shape=ellipse,color=green]

    table1 [shape=none, label=<
        <table border="0" cellborder="1" cellspacing="0">
            <tr>
                <td bgcolor="lightblue"><b>Apps</b></td>
            </tr>
            <tr>
                <td align="left" port="c0"><b>id : </b> int</td>
            </tr>
            <tr>
                <td align="left"><b>title: </b> varchar 255</td>
            </tr>
            <tr>
                <td align="left"><b>path: </b> varchar 1024</td>
            </tr>
            <tr>
                <td align="left"><b>icon_path: </b> varchar 1024</td>
            </tr>

            <tr>
                <td align="left"><b>mini_level_name: </b> varchar 255</td>
            </tr>
            <tr>
                <td align="left"><b>mini_sub_level_name: </b> varchar 255</td>
            </tr>

            <tr>
                <td align="left"><b>super_level_name: </b> varchar 255</td>
            </tr>
            <tr>
                <td align="left"><b>super_sub_level_name: </b> varchar 255</td>
            </tr>

            <tr>
                <td align="left"><b>maxi_level_name: </b> varchar 255</td>
            </tr>
            <tr>
                <td align="left"><b>maxi_sub_level_name: </b> varchar 255</td>
            </tr>

            <tr>
                <td align="left"><b>prof_level_name: </b> varchar 255</td>
            </tr>
            <tr>
                <td align="left"><b>prof_sub_level_name: </b> varchar 255</td>
            </tr>

            <tr>
                <td align="left"><b>in_mini: </b> bool</td>
            </tr>
            <tr>
                <td align="left"><b>in_super: </b> bool</td>
            </tr>
            <tr>
                <td align="left"><b>in_maxi: </b> bool</td>
            </tr>
            <tr>
                <td align="left"><b>in_prof: </b> bool</td>
            </tr>
        </table>>
    ]
    table2 [shape=none, label=<
        <table border="0" cellborder="1" cellspacing="0">
            <tr>
                <td bgcolor="lightblue"><b>Keywords</b></td>
            </tr>
            <tr>
                <td align="left" port="c0"><b>id : </b> int</td>
            </tr>
            <tr>
                <td align="left"><b>name : </b> varchar 255</td>
            </tr>
        </table>>
    ]

    table1:c0 -> link2 [label="3,n"];
    link2 -> table2:c0 [label="1,n"];
}
