<svg width="300" height="200" viewBox="0 0 300 200" fill="none" xmlns="http://www.w3.org/2000/svg">
<path fill-rule="evenodd" clip-rule="evenodd" d="M173.605 164.654C174.198 164.654 174.747 164.341 175.049 163.832C175.625 162.86 176.59 161.233 177.263 160.096C177.735 159.302 178.59 158.815 179.514 158.815C182.907 158.815 191.174 158.815 194.568 158.815C195.492 158.815 196.347 159.302 196.818 160.096C197.492 161.233 198.457 162.86 199.033 163.832C199.335 164.341 199.884 164.654 200.477 164.654C203.486 164.654 212.781 164.654 216.613 164.654C217.059 164.654 217.485 164.83 217.8 165.144C218.115 165.459 218.292 165.885 218.292 166.328C218.292 167.672 218.292 169.545 218.292 170.888C218.292 171.813 217.54 172.563 216.613 172.563C207.738 172.563 166.343 172.563 157.467 172.563C156.541 172.563 155.79 171.813 155.79 170.888C155.79 169.545 155.79 167.672 155.79 166.328C155.79 165.885 155.966 165.459 156.281 165.144C156.596 164.83 157.023 164.654 157.467 164.654H173.605Z" fill="var(--colors-category-emc-low1)"/>
<path d="M189.962 47.1284H184.118V158.815H189.962V47.1284Z" fill="var(--colors-category-emc-high1)"/>
<path fill-rule="evenodd" clip-rule="evenodd" d="M187.041 47.7463C187.041 47.7463 187.041 47.7463 187.04 49.7463L187.041 47.7463C188.145 47.7465 189.041 48.642 189.04 49.7466C189.04 50.8512 188.145 51.7465 187.04 51.7463L186.959 51.7464L186.709 51.7472C186.487 51.748 186.152 51.7497 185.708 51.7532C184.819 51.7601 183.49 51.774 181.734 51.8019C178.224 51.8578 173.008 51.97 166.199 52.195C157.556 52.4803 151.802 54.7976 146.817 56.8047C145.383 57.3821 144.013 57.9338 142.656 58.4041C139.635 59.4511 136.594 60.0997 133.26 59.308C129.952 58.5226 126.661 56.3947 122.926 52.5586C122.155 51.7672 122.172 50.501 122.963 49.7304C123.754 48.9598 125.021 48.9766 125.791 49.768C129.261 53.3308 131.912 54.8767 134.184 55.4162C136.43 55.9494 138.607 55.574 141.346 54.6247C142.491 54.228 143.719 53.7316 145.056 53.1912C150.081 51.1602 156.642 48.5083 166.067 48.1972C172.9 47.9714 178.138 47.8587 181.671 47.8024C183.437 47.7743 184.777 47.7603 185.676 47.7533C186.126 47.7498 186.466 47.7481 186.694 47.7472C186.808 47.7468 186.894 47.7465 186.952 47.7464L187.041 47.7463Z" fill="var(--colors-category-emc-high1)"/>
<path fill-rule="evenodd" clip-rule="evenodd" d="M185.041 49.7466C185.041 48.642 185.936 47.7465 187.041 47.7463L187.041 49.7463C187.041 47.7463 187.041 47.7463 187.041 47.7463L187.13 47.7464C187.187 47.7465 187.273 47.7468 187.387 47.7472C187.615 47.7481 187.955 47.7498 188.405 47.7533C189.305 47.7603 190.645 47.7743 192.411 47.8024C195.944 47.8587 201.182 47.9714 208.014 48.1972C217.44 48.5083 224.001 51.1602 229.026 53.1912C230.363 53.7316 231.591 54.228 232.735 54.6247C235.474 55.574 237.652 55.9494 239.898 55.4162C242.17 54.8767 244.821 53.3308 248.29 49.768C249.061 48.9766 250.327 48.9598 251.118 49.7304C251.91 50.501 251.927 51.7672 251.156 52.5586C247.42 56.3947 244.13 58.5226 240.822 59.308C237.487 60.0997 234.446 59.4511 231.425 58.4041C230.068 57.9338 228.698 57.3821 227.264 56.8047C222.28 54.7976 216.525 52.4803 207.882 52.195C201.073 51.97 195.858 51.8578 192.347 51.8019C190.592 51.774 189.263 51.7601 188.374 51.7532C187.929 51.7497 187.595 51.748 187.372 51.7472L187.122 51.7464L187.042 51.7463M185.041 49.7466C185.041 50.8512 185.938 51.7465 187.042 51.7463L185.041 49.7466Z" fill="var(--colors-category-emc-high1)"/>
<path d="M187.041 53.7035C189.23 53.7035 191.005 51.9318 191.005 49.7463C191.005 47.5608 189.23 45.7891 187.041 45.7891C184.852 45.7891 183.077 47.5608 183.077 49.7463C183.077 51.9318 184.852 53.7035 187.041 53.7035Z" fill="var(--colors-category-emc-low2)"/>
<path d="M187.052 47.622C189.787 47.622 192.005 45.4083 192.005 42.6777C192.005 39.947 189.787 37.7334 187.052 37.7334C184.317 37.7334 182.1 39.947 182.1 42.6777C182.1 45.4083 184.317 47.622 187.052 47.622Z" fill="var(--colors-category-emc-low2)"/>
<path fill-rule="evenodd" clip-rule="evenodd" d="M160.271 118.262C160.585 118.262 160.885 118.389 161.103 118.614C161.322 118.839 161.439 119.143 161.429 119.456C160.903 135.294 149.898 139.721 136.419 139.721C122.932 139.721 111.923 135.672 111.413 119.455C111.403 119.142 111.52 118.84 111.738 118.616C111.955 118.391 112.254 118.265 112.567 118.265C119.349 118.262 153.486 118.262 160.271 118.262Z" fill="var(--colors-category-emc-low2)"/>
<path fill-rule="evenodd" clip-rule="evenodd" d="M261.51 118.262C261.824 118.262 262.124 118.389 262.342 118.614C262.561 118.839 262.678 119.143 262.668 119.456C262.142 135.294 251.138 139.721 237.659 139.721C224.172 139.721 213.162 135.672 212.652 119.455C212.642 119.142 212.759 118.84 212.977 118.616C213.194 118.391 213.493 118.265 213.806 118.265C220.589 118.262 254.726 118.262 261.51 118.262Z" fill="var(--colors-category-emc-low2)"/>
<path fill-rule="evenodd" clip-rule="evenodd" d="M139.323 57.948C139.058 56.6242 137.886 55.6743 136.531 55.6905C135.175 55.7067 134.026 56.6843 133.794 58.0142L123.256 118.314C123.256 118.314 123.256 118.314 122.271 118.142C121.286 117.97 121.286 117.97 121.286 117.97L131.823 57.6697C132.223 55.3896 134.191 53.7183 136.507 53.6907C138.822 53.663 140.831 55.2863 141.284 57.5565C143.659 69.458 146.672 84.5556 149.091 96.6777L153.335 117.946C153.335 117.946 153.335 117.947 152.522 118.109L153.335 117.946C153.443 118.488 153.092 119.015 152.55 119.123C152.008 119.231 151.482 118.88 151.374 118.338L152.186 118.176C151.374 118.338 151.374 118.338 151.374 118.338L147.13 97.0691C144.711 84.947 141.698 69.8495 139.323 57.948ZM122.271 118.142L121.286 117.97C121.191 118.514 121.554 119.032 122.098 119.127C122.642 119.222 123.161 118.858 123.256 118.314L122.271 118.142Z" fill="var(--colors-category-emc-high2)"/>
<path fill-rule="evenodd" clip-rule="evenodd" d="M240.562 57.948C240.298 56.6242 239.125 55.6743 237.77 55.6905C236.415 55.7067 235.266 56.6843 235.033 58.0142L224.495 118.314C224.495 118.314 224.495 118.314 223.51 118.142C222.525 117.97 222.525 117.97 222.525 117.97L233.063 57.6697C233.462 55.3896 235.43 53.7183 237.746 53.6907C240.061 53.663 242.07 55.2863 242.523 57.5565C244.898 69.458 247.911 84.5556 250.33 96.6777L254.574 117.946C254.574 117.946 254.574 117.947 253.761 118.109L254.574 117.946C254.682 118.488 254.331 119.015 253.789 119.123C253.248 119.231 252.721 118.88 252.613 118.338L253.425 118.176C252.613 118.338 252.613 118.338 252.613 118.338L252.613 118.336L248.369 97.0691C245.95 84.947 242.937 69.8495 240.562 57.948ZM223.51 118.142L222.525 117.97C222.43 118.514 222.794 119.032 223.338 119.127C223.882 119.222 224.4 118.858 224.495 118.314L223.51 118.142Z" fill="var(--colors-category-emc-high2)"/>
<path fill-rule="evenodd" clip-rule="evenodd" d="M122.963 49.7303C123.754 48.9597 125.021 48.9765 125.791 49.7679C130.334 54.4326 133.491 55.6684 136.309 55.6597C137.414 55.6564 138.312 56.549 138.316 57.6536C138.319 58.7582 137.426 59.6563 136.322 59.6597C131.986 59.673 127.856 57.6212 122.926 52.5585C122.155 51.7672 122.172 50.501 122.963 49.7303Z" fill="var(--colors-category-emc-high1)"/>
<path fill-rule="evenodd" clip-rule="evenodd" d="M251.012 49.7302C251.804 50.5007 251.821 51.7669 251.05 52.5584C246.121 57.6213 241.99 59.673 237.654 59.6597C236.549 59.6563 235.657 58.7582 235.66 57.6536C235.664 56.549 236.562 55.6564 237.666 55.6597C240.485 55.6684 243.643 54.4325 248.184 49.768C248.955 48.9766 250.221 48.9597 251.012 49.7302Z" fill="var(--colors-category-emc-high1)"/>
<path fill-rule="evenodd" clip-rule="evenodd" d="M91.3862 33.6021C96.56 36.1702 99.9517 41.017 101.738 47.2896C104.406 56.6628 60.0158 59.2906 63.266 49.22C65.1218 43.4707 67.6932 38.4787 71.4995 35.2846C70.5975 26.6409 74.0032 23.204 80.6251 22.821C87.3437 22.4319 91.8417 26.3374 91.3862 33.6021Z" fill="var(--colors-category-emc-low2)"/>
<path fill-rule="evenodd" clip-rule="evenodd" d="M54.7523 93.5424C50.2862 82.2847 52.6065 73.9573 57.5669 64.3185C62.5264 54.6797 57.862 52.2618 68.338 44.6578C78.8141 37.0538 96.4693 36.8608 102.725 49.4568C108.982 62.0528 108.205 67.4279 111.352 75.8767C114.497 84.3255 113.164 84.8648 112.349 90.5473C111.536 96.2299 66.8191 123.956 54.7523 93.5424Z" fill="var(--colors-category-emc-low1)"/>
<path fill-rule="evenodd" clip-rule="evenodd" d="M112.907 159.553C113.038 163.525 112.907 171.513 112.907 171.513C112.907 174.91 110.145 177.668 106.741 177.668H56.9219C53.5193 177.668 50.7565 174.91 50.7565 171.513C50.7565 171.513 50.9429 160.98 49.9203 157.038C48.7761 152.625 46.6781 151.302 43.8894 145.036C38.0558 131.928 26.1505 135.463 30.1143 114.932C34.9811 89.7245 70.8854 90.6061 70.8854 90.6061L97.8515 91.0916C97.8515 91.0916 125.543 89.1533 134.021 108.485C140.644 123.586 136.718 125.939 124.056 140.839C115.72 150.648 112.729 154.118 112.907 159.553Z" fill="var(--colors-category-emc-high2)"/>
<path fill-rule="evenodd" clip-rule="evenodd" d="M70.1472 75.3623C70.1472 75.3623 73.6097 89.5504 68.1629 91.418C63.02 93.1802 68.6881 98.0807 76.7014 110.872C81.0957 117.886 87.6359 123.167 86.3722 120.317C85.0366 117.306 93.3728 113.055 96.028 108.439C101.338 99.2081 106.576 96.4797 101.243 92.7076C95.9084 88.9364 97.6795 90.4489 96.3868 74.816L70.1472 75.3623Z" fill="var(--colors-category-emc-normal)"/>
<path fill-rule="evenodd" clip-rule="evenodd" d="M81.3392 45.3374C74.3834 45.5851 65.8787 51.5115 67.1485 67.8C68.6834 87.4916 97.7834 98.601 99.6342 65.3294C100.682 46.4896 88.0468 45.0976 81.3392 45.3374Z" fill="var(--colors-category-emc-high1)"/>
<path fill-rule="evenodd" clip-rule="evenodd" d="M76.4872 107.377C77.0652 106.999 77.8398 107.161 78.2174 107.739L77.171 108.423L76.1247 109.107C75.747 108.529 75.9093 107.754 76.4872 107.377ZM77.171 108.423C76.1247 109.107 76.1244 109.106 76.1247 109.107L76.4455 109.597C76.6551 109.918 76.9633 110.389 77.3575 110.992C78.1459 112.196 79.2786 113.926 80.6556 116.026C83.4095 120.226 87.1408 125.908 91.05 131.834C98.857 143.668 107.406 156.526 110.273 160.459C110.68 161.017 111.462 161.139 112.02 160.733C112.578 160.326 112.7 159.544 112.293 158.986C109.47 155.113 100.964 142.321 93.1368 130.457C89.2293 124.534 85.4994 118.854 82.7463 114.655C81.3697 112.556 80.2375 110.827 79.4494 109.623C79.0553 109.02 78.7473 108.55 78.5378 108.229L78.2174 107.739C78.2172 107.739 78.2174 107.739 77.171 108.423Z" fill="var(--colors-category-emc-normal)"/>
<path fill-rule="evenodd" clip-rule="evenodd" d="M185.5 38.7543L186.788 33.2001C186.801 33.1434 186.909 33.1006 187.04 33.1006C187.17 33.1006 187.279 33.1434 187.292 33.2001L188.58 38.7543C188.58 38.9404 188.407 39.1085 188.128 39.2299C187.85 39.3523 187.464 39.428 187.04 39.428C186.19 39.428 185.5 39.1255 185.5 38.7543Z" fill="var(--colors-category-emc-low2)"/>
</svg>
