<svg width="300" height="200" viewBox="0 0 300 200" fill="none" xmlns="http://www.w3.org/2000/svg">
<g clip-path="url(#clip0_465_2156)">
<path fill-rule="evenodd" clip-rule="evenodd" d="M140 47.0001C109.307 44.5981 80.491 45.7061 49.372 48.0661C47.314 48.2231 44.3748 49.5793 44.3378 51.6423C44.0038 70.0533 42.6909 153.149 42.3379 172.642C42.3179 173.722 42.5773 174.875 43.3383 175.642C44.1003 176.409 46.446 176.803 47.527 176.791C67.8383 176.791 109.269 176.731 139.838 177.396L140 47.0001Z" fill="var(--colors-category-french-low2)"/>
<path fill-rule="evenodd" clip-rule="evenodd" d="M231.755 50.948C231.676 48.9 230.06 47.243 228.014 47.112C197.243 45.147 170.781 44.247 139.662 46.358V176.194C169.51 175.637 200.366 175.349 232.382 176.089C233.486 176.115 234.552 175.684 235.327 174.897C236.102 174.11 236.517 173.038 236.474 171.935C235.702 152.136 232.47 69.283 231.755 50.948Z" fill="var(--colors-category-french-normal)"/>
<path fill-rule="evenodd" clip-rule="evenodd" d="M139.581 45.1608C170.775 43.0447 197.296 43.948 228.09 45.9145L228.091 45.9145C230.75 46.0848 232.851 48.2387 232.954 50.9018L231.755 50.9481L232.954 50.9013C232.954 50.9015 232.954 50.9017 232.954 50.9018C233.27 58.9934 234.075 79.6489 234.943 101.905C236.042 130.083 237.242 160.827 237.673 171.888C237.729 173.322 237.189 174.716 236.182 175.739C235.174 176.762 233.789 177.322 232.354 177.289L232.382 176.089L232.354 177.289C232.354 177.289 232.354 177.289 232.354 177.289C200.362 176.549 169.525 176.837 139.684 177.394C139.362 177.4 139.051 177.276 138.821 177.05C138.591 176.825 138.462 176.516 138.462 176.194V46.3581C138.462 45.7269 138.951 45.2035 139.581 45.1608ZM140.862 47.4806V174.972C170.337 174.429 200.806 174.159 232.41 174.889L232.41 174.889C233.183 174.908 233.93 174.606 234.472 174.055C235.015 173.504 235.305 172.754 235.275 171.982C234.844 160.931 233.647 130.237 232.548 102.083C231.679 79.7939 230.872 59.0963 230.556 50.9948L230.556 50.9943C230.501 49.5615 229.37 48.4014 227.937 48.3096M140.862 47.4806C171.423 45.4712 197.559 46.3697 227.937 48.3096L140.862 47.4806Z" fill="var(--colors-category-french-low2)"/>
<path fill-rule="evenodd" clip-rule="evenodd" d="M140.129 45.937C109.589 43.548 80.9167 44.65 49.9537 46.997C47.8967 47.154 46.2957 48.85 46.2587 50.913C45.9257 69.227 44.4367 151.271 44.0807 170.913C44.0607 172.012 44.4937 173.072 45.2797 173.842C46.0657 174.612 47.1337 175.024 48.2327 174.982C79.0387 173.82 109.685 173.609 140.129 175.148V45.937Z" fill="var(--colors-category-french-normal)"/>
<path fill-rule="evenodd" clip-rule="evenodd" d="M231.778 50.5231C231.699 48.4741 230.083 46.8181 228.037 46.6871C197.422 44.7321 171.092 43.8381 140.129 45.9371V175.148C169.777 173.011 200.425 172.936 232.223 174.867C233.351 174.937 234.457 174.525 235.265 173.735C236.074 172.945 236.51 171.849 236.466 170.719C235.685 150.688 232.489 68.7461 231.778 50.5231Z" fill="var(--colors-category-french-normal)"/>
<path fill-rule="evenodd" clip-rule="evenodd" d="M140.129 43.8451C109.749 41.4561 81.2261 42.5571 50.4261 44.9041C48.3691 45.0611 46.7691 46.7571 46.7311 48.8201C46.4011 67.1321 44.9191 149.178 44.5641 168.82C44.5441 169.92 44.9781 170.98 45.7641 171.75C46.5501 172.519 47.6181 172.932 48.7171 172.889C79.3611 171.728 109.846 171.517 140.129 173.055V43.8451Z" fill="var(--colors-category-french-high1)"/>
<path fill-rule="evenodd" clip-rule="evenodd" d="M230.956 48.431C230.877 46.382 229.262 44.725 227.216 44.593C196.889 42.64 170.803 41.746 140.129 43.845V173.055C169.498 170.919 199.858 170.844 231.356 172.772C232.484 172.843 233.59 172.432 234.399 171.642C235.208 170.852 235.645 169.756 235.601 168.626C234.827 148.593 231.66 66.652 230.956 48.431Z" fill="var(--colors-category-french-high1)"/>
<path fill-rule="evenodd" clip-rule="evenodd" d="M140.081 41.463C109.939 39.075 81.6389 40.175 51.0819 42.52C49.0259 42.679 47.4269 44.375 47.3899 46.437C47.0619 64.745 45.5909 146.793 45.2389 166.438C45.2199 167.538 45.6539 168.597 46.4399 169.367C47.2259 170.137 48.2939 170.549 49.3939 170.506C79.7939 169.346 110.038 169.136 140.081 170.674V41.463Z" fill="var(--colors-category-french-high2)"/>
<path fill-rule="evenodd" clip-rule="evenodd" d="M230.217 46.0481C230.139 44.0001 228.525 42.3421 226.48 42.2091C196.395 40.2571 170.513 39.3651 140.081 41.4631V170.674C169.216 168.538 199.334 168.462 230.58 170.388C231.709 170.459 232.815 170.049 233.624 169.259C234.434 168.469 234.871 167.374 234.827 166.243C234.059 146.209 230.916 64.2681 230.217 46.0481Z" fill="var(--colors-category-french-high2)"/>
<path fill-rule="evenodd" clip-rule="evenodd" d="M217.977 59.0092C194.96 56.8303 173.226 57.6707 153.082 58.8808C150.877 59.0133 148.982 57.333 148.849 55.1278C148.717 52.9227 150.397 51.0277 152.602 50.8952C172.842 49.6793 195.078 48.8057 218.731 51.0448C220.93 51.253 222.544 53.2047 222.336 55.404C222.128 57.6033 220.176 59.2174 217.977 59.0092Z" fill="var(--colors-category-french-normal)"/>
<path fill-rule="evenodd" clip-rule="evenodd" d="M217.992 71.3917C200.854 69.8365 177.561 69.7763 153.078 71.2251C150.873 71.3556 148.979 69.6736 148.849 67.4683C148.718 65.263 150.4 63.3695 152.606 63.239C177.335 61.7757 201.052 61.8216 218.715 63.4244C220.916 63.6241 222.537 65.5694 222.338 67.7695C222.138 69.9696 220.193 71.5913 217.992 71.3917Z" fill="var(--colors-category-french-normal)"/>
<path fill-rule="evenodd" clip-rule="evenodd" d="M217.937 84.5812C204.659 83.1907 177.879 82.6116 153.098 84.1997C150.893 84.341 148.991 82.6684 148.85 80.4637C148.709 78.2591 150.382 76.3574 152.586 76.2161C177.707 74.6063 204.949 75.1772 218.771 76.6247C220.968 76.8548 222.562 78.8224 222.332 81.0195C222.102 83.2167 220.134 84.8113 217.937 84.5812Z" fill="var(--colors-category-french-normal)"/>
<path fill-rule="evenodd" clip-rule="evenodd" d="M218.146 97.8526C203.103 97.0711 171.435 96.8188 153.157 98.2616C150.954 98.4354 149.028 96.791 148.854 94.5887C148.681 92.3864 150.325 90.4602 152.527 90.2864C171.267 88.8071 203.307 89.0709 218.562 89.8634C220.768 89.978 222.463 91.8593 222.349 94.0655C222.234 96.2717 220.353 97.9672 218.146 97.8526Z" fill="var(--colors-category-french-normal)"/>
<path fill-rule="evenodd" clip-rule="evenodd" d="M183.069 112.227C175.815 112 167.125 111.727 153.063 112.506C150.857 112.628 148.97 110.939 148.848 108.733C148.726 106.527 150.415 104.64 152.621 104.518C167.049 103.719 176.071 104.003 183.35 104.231C184.81 104.277 186.199 104.321 187.549 104.353C189.757 104.406 191.505 106.239 191.452 108.448C191.399 110.656 189.566 112.404 187.357 112.351C185.965 112.318 184.547 112.273 183.069 112.227Z" fill="var(--colors-category-french-normal)"/>
<path fill-rule="evenodd" clip-rule="evenodd" d="M140.081 41.839C140.523 41.839 140.881 42.1972 140.881 42.639V170.674C140.881 171.116 140.523 171.474 140.081 171.474C139.639 171.474 139.281 171.116 139.281 170.674V42.639C139.281 42.1972 139.639 41.839 140.081 41.839Z" fill="var(--colors-category-french-low1)"/>
<path fill-rule="evenodd" clip-rule="evenodd" d="M125.269 59.0243C109.019 58.4197 99.3445 58.161 86.2787 59.0185C84.0743 59.1631 82.17 57.4934 82.0253 55.289C81.8807 53.0846 83.5504 51.1803 85.7548 51.0356C99.263 50.1491 109.292 50.4244 125.566 51.0298C127.774 51.1119 129.497 52.9682 129.415 55.1758C129.333 57.3834 127.477 59.1064 125.269 59.0243Z" fill="var(--colors-category-french-normal)"/>
<path fill-rule="evenodd" clip-rule="evenodd" d="M117.023 71.1774C109.407 70.9231 101.34 70.6537 87.2186 71.2051C85.0112 71.2913 83.1518 69.5716 83.0656 67.3642C82.9794 65.1567 84.699 63.2973 86.9065 63.2112C101.34 62.6476 109.774 62.9293 117.447 63.1856C120.144 63.2757 122.748 63.3627 125.485 63.4087C127.694 63.4458 129.454 65.2665 129.417 67.4753C129.38 69.6841 127.559 71.4446 125.35 71.4075C122.458 71.359 119.77 71.2692 117.023 71.1774Z" fill="var(--colors-category-french-normal)"/>
<path fill-rule="evenodd" clip-rule="evenodd" d="M125.256 84.5997C96.2594 83.4233 75.4604 83.9386 60.5289 86.297C58.3469 86.6417 56.2985 85.1521 55.9539 82.9701C55.6092 80.788 57.0987 78.7396 59.2808 78.395C75.0173 75.9094 96.4583 75.4247 125.58 76.6063C127.787 76.6958 129.504 78.5578 129.415 80.7652C129.325 82.9725 127.463 84.6893 125.256 84.5997Z" fill="var(--colors-category-french-normal)"/>
<path fill-rule="evenodd" clip-rule="evenodd" d="M125.21 97.8526C107.109 96.913 84.4566 97.3898 60.266 99.5846C58.0659 99.7843 56.1205 98.1625 55.9209 95.9624C55.7213 93.7623 57.343 91.817 59.5431 91.6174C84.0465 89.3942 107.084 88.901 125.625 89.8634C127.831 89.9779 129.527 91.8592 129.412 94.0654C129.298 96.2715 127.416 97.9672 125.21 97.8526Z" fill="var(--colors-category-french-normal)"/>
<path fill-rule="evenodd" clip-rule="evenodd" d="M125.202 112.321C100.291 110.978 78.6867 111.502 60.4546 114.032C58.2664 114.336 56.2464 112.808 55.9427 110.62C55.6391 108.432 57.1668 106.412 59.355 106.108C78.2509 103.486 100.398 102.972 125.633 104.333C127.839 104.452 129.531 106.337 129.412 108.542C129.293 110.748 127.408 112.44 125.202 112.321Z" fill="var(--colors-category-french-normal)"/>
<path fill-rule="evenodd" clip-rule="evenodd" d="M125.231 126.604C100.286 125.436 78.6654 125.911 60.4278 128.317C58.2376 128.606 56.2279 127.064 55.9391 124.874C55.6502 122.684 57.1916 120.674 59.3817 120.385C78.2521 117.897 100.383 117.432 125.605 118.612C127.811 118.716 129.517 120.588 129.413 122.795C129.31 125.002 127.437 126.707 125.231 126.604Z" fill="var(--colors-category-french-normal)"/>
<path fill-rule="evenodd" clip-rule="evenodd" d="M125.328 141.135C100.103 140.573 78.4497 141.055 60.3004 142.859C58.1021 143.078 56.1428 141.473 55.9242 139.275C55.7056 137.077 57.3105 135.117 59.5088 134.899C78.1035 133.05 100.111 132.571 125.507 133.137C127.715 133.186 129.466 135.017 129.417 137.225C129.367 139.434 127.537 141.184 125.328 141.135Z" fill="var(--colors-category-french-normal)"/>
<path fill-rule="evenodd" clip-rule="evenodd" d="M96.6591 151.124C96.7231 153.332 94.9849 155.174 92.7766 155.238C91.4655 155.276 90.1789 155.313 88.9165 155.348C77.6178 155.666 68.2489 155.93 60.4077 156.924C58.2161 157.202 56.2143 155.651 55.9365 153.459C55.6587 151.267 57.2101 149.266 59.4017 148.988C67.659 147.941 77.4492 147.666 88.6321 147.353C89.918 147.317 91.2223 147.28 92.5448 147.242C94.753 147.178 96.595 148.916 96.6591 151.124Z" fill="var(--colors-category-french-normal)"/>
<path d="M65.5176 68.8321L64.5556 72.7611L58.3516 73.1201L64.1376 51.6761L70.3696 51.3151L78.5906 71.9481L72.3866 72.3071L70.9776 68.5161L65.5176 68.8321ZM67.5026 57.2361C67.4576 57.7361 67.3836 58.3631 67.2796 59.1161C67.1756 59.8691 67.0576 60.5441 66.9266 61.1421L66.2486 64.2521L69.7236 64.0511L68.7186 61.0381C68.5186 60.4411 68.3186 59.7751 68.1186 59.0401C67.9196 58.3041 67.7786 57.6991 67.6956 57.2241L67.5026 57.2361Z" fill="var(--colors-category-french-normal)"/>
<path fill-rule="evenodd" clip-rule="evenodd" d="M196.949 106.214C198.309 102.749 257.73 102.749 256.37 106.214C255.931 107.333 243.057 108.512 226.66 108.512C210.262 108.512 196.51 107.333 196.949 106.214Z" fill="var(--colors-category-french-high1)"/>
<path d="M226.371 106.552C240.388 106.552 251.751 106.077 251.751 105.49C251.751 104.903 240.388 104.428 226.371 104.428C212.354 104.428 200.991 104.903 200.991 105.49C200.991 106.077 212.354 106.552 226.371 106.552Z" fill="var(--colors-category-french-low2)"/>
<path fill-rule="evenodd" clip-rule="evenodd" d="M230.717 161.667L240.019 76.0321C243.703 75.8311 247.491 76.2821 251.456 77.2741L242.155 162.909C238.248 162.232 234.435 161.857 230.717 161.667Z" fill="var(--colors-category-french-low2)"/>
<path fill-rule="evenodd" clip-rule="evenodd" d="M240.019 76.0321C240.019 76.0321 244.615 67.5211 246.485 64.0591C246.613 63.8211 246.873 63.6851 247.142 63.7141C247.411 63.7441 247.635 63.9331 247.709 64.1931C248.789 67.9891 251.449 77.3411 251.449 77.3411C247.991 76.3971 244.188 75.9491 240.019 76.0321Z" fill="var(--colors-category-french-high2)"/>
<path fill-rule="evenodd" clip-rule="evenodd" d="M242.154 162.909L241.804 166.132C241.49 169.021 238.672 171.089 235.516 170.746C232.36 170.403 230.052 167.779 230.366 164.89L230.716 161.667C234.554 161.686 238.38 162.046 242.154 162.909Z" fill="var(--colors-category-french-high2)"/>
<path fill-rule="evenodd" clip-rule="evenodd" d="M237.182 171.554L234.366 89.3471C230.871 88.8961 227.232 89.0591 223.386 89.7241L226.202 171.93C229.97 171.561 233.628 171.472 237.182 171.554Z" fill="var(--colors-category-french-normal)"/>
<path fill-rule="evenodd" clip-rule="evenodd" d="M234.366 89.3471C234.366 89.3471 230.638 81.0271 229.083 77.5571C228.972 77.3101 228.723 77.1551 228.453 77.1641C228.183 77.1741 227.945 77.3461 227.852 77.6001C226.54 81.1821 223.388 89.7871 223.388 89.7871C226.748 89.1321 230.401 88.9741 234.366 89.3471Z" fill="var(--colors-category-french-low2)"/>
<path fill-rule="evenodd" clip-rule="evenodd" d="M226.202 171.93L226.308 175.023C226.404 177.797 228.941 179.965 231.971 179.861C235 179.757 237.383 177.421 237.288 174.647L237.182 171.554C233.526 171.301 229.857 171.374 226.202 171.93Z" fill="var(--colors-category-french-high2)"/>
<path fill-rule="evenodd" clip-rule="evenodd" d="M210.551 60.2C210.335 59.918 209.984 59.773 209.632 59.82C209.279 59.867 208.979 60.099 208.844 60.428C206.854 65.431 201.65 80.558 212.193 79.11C222.731 77.663 213.779 64.491 210.551 60.2Z" fill="var(--colors-category-french-high1)"/>
<path fill-rule="evenodd" clip-rule="evenodd" d="M215.712 78.362C213.578 78.345 211.388 78.453 209.147 79.164C208.629 79.333 208.241 79.768 208.133 80.302C205.78 93.66 211.264 126.415 222.971 179.156C223.324 180.751 224.537 182.015 226.116 182.434C226.985 182.663 227.812 182.611 228.587 182.211C229.979 181.489 230.8 180.001 230.667 178.439C226.232 126.532 219.891 78.296 215.712 78.362Z" fill="var(--colors-category-french-low2)"/>
<path fill-rule="evenodd" clip-rule="evenodd" d="M211.316 71.1031C211.897 71.0851 212.382 71.5411 212.401 72.1221C212.419 72.7021 211.962 73.1881 211.382 73.2061C210.801 73.2241 210.315 72.7681 210.297 72.1871C210.279 71.6071 210.736 71.1211 211.316 71.1031Z" fill="var(--colors-category-french-low2)"/>
<path fill-rule="evenodd" clip-rule="evenodd" d="M209.583 60.1934C209.856 60.1531 210.111 60.3418 210.151 60.615L211.844 72.082C211.884 72.3552 211.696 72.6094 211.422 72.6497C211.149 72.69 210.895 72.5013 210.855 72.2281L209.162 60.7611C209.121 60.4879 209.31 60.2337 209.583 60.1934Z" fill="var(--colors-category-french-low2)"/>
<path fill-rule="evenodd" clip-rule="evenodd" d="M256.855 107.012C256.855 106.588 256.68 106.184 256.372 105.894C256.063 105.604 255.649 105.454 255.226 105.481C236.115 106.647 217.069 106.612 198.105 105.478C197.683 105.453 197.269 105.603 196.961 105.892C196.653 106.182 196.478 106.586 196.478 107.009C196.478 115.651 196.478 156.385 196.478 174.615C196.478 180.245 200.189 185.201 205.59 186.786C219.65 190.887 233.697 190.924 247.744 186.762C253.118 185.178 256.808 180.243 256.808 174.64C256.855 156.425 256.855 115.663 256.855 107.012Z" fill="var(--colors-category-french-high1)"/>
</g>
<defs>
<clipPath id="clip0_465_2156">
<rect width="300" height="200" fill="white"/>
</clipPath>
</defs>
</svg>
