<svg width="300" height="200" viewBox="0 0 300 200" fill="none" xmlns="http://www.w3.org/2000/svg">
<path fill-rule="evenodd" clip-rule="evenodd" d="M40 24.9848C40 21.6724 42.4998 18.8947 45.7933 18.5479C51.8089 17.7698 55.5414 17.8332 62.006 18.6568C65.2761 19.0225 67.7482 21.788 67.7482 25.0781C67.7593 50.033 67.7593 150.698 67.7593 175.052C67.7593 178.282 65.3784 181.018 62.1783 181.462C55.7103 182.531 51.9534 182.507 45.5443 181.421C42.3731 180.96 40.0211 178.241 40.0211 175.036C40 150.626 40 49.774 40 24.9848Z" fill="var(--colors-category-mathematics-low2)"/>
<mask id="mask0_475_4130" style="mask-type:luminance" maskUnits="userSpaceOnUse" x="40" y="18" width="28" height="165">
<path d="M40 24.9848C40 21.6724 42.4998 18.8947 45.7933 18.5479C51.8089 17.7698 55.5414 17.8332 62.006 18.6568C65.2761 19.0225 67.7482 21.788 67.7482 25.0781C67.7593 50.033 67.7593 150.698 67.7593 175.052C67.7593 178.282 65.3784 181.018 62.1783 181.462C55.7103 182.531 51.9534 182.507 45.5443 181.421C42.3731 180.96 40.0211 178.241 40.0211 175.036C40 150.626 40 49.774 40 24.9848Z" fill="white"/>
</mask>
<g mask="url(#mask0_475_4130)">
<path fill-rule="evenodd" clip-rule="evenodd" d="M72.2723 37.5971C73.6384 37.5971 74.7477 36.4878 74.7477 35.1217C74.7477 33.7546 73.6384 32.6453 72.2723 32.6453H59.6376C58.2715 32.6453 57.1611 33.7546 57.1611 35.1217C57.1611 36.4878 58.2715 37.5971 59.6376 37.5971H72.2723Z" fill="var(--colors-category-mathematics-high1)"/>
<path fill-rule="evenodd" clip-rule="evenodd" d="M72.2723 56.1662C73.6384 56.1662 74.7477 55.0569 74.7477 53.6897C74.7477 52.3237 73.6384 51.2144 72.2723 51.2144H59.6376C58.2715 51.2144 57.1611 52.3237 57.1611 53.6897C57.1611 55.0569 58.2715 56.1662 59.6376 56.1662H72.2723Z" fill="var(--colors-category-mathematics-high1)"/>
<path fill-rule="evenodd" clip-rule="evenodd" d="M72.2723 74.7342C73.6384 74.7342 74.7477 73.6249 74.7477 72.2588C74.7477 70.8927 73.6384 69.7834 72.2723 69.7834H59.6376C58.2715 69.7834 57.1611 70.8927 57.1611 72.2588C57.1611 73.6249 58.2715 74.7342 59.6376 74.7342H72.2723Z" fill="var(--colors-category-mathematics-high1)"/>
<path fill-rule="evenodd" clip-rule="evenodd" d="M72.2723 93.3034C73.6384 93.3034 74.7477 92.1941 74.7477 90.828C74.7477 89.4609 73.6384 88.3516 72.2723 88.3516H59.6376C58.2715 88.3516 57.1611 89.4609 57.1611 90.828C57.1611 92.1941 58.2715 93.3034 59.6376 93.3034H72.2723Z" fill="var(--colors-category-mathematics-high1)"/>
<path fill-rule="evenodd" clip-rule="evenodd" d="M72.2723 111.873C73.6384 111.873 74.7477 110.763 74.7477 109.396C74.7477 108.03 73.6384 106.921 72.2723 106.921H59.6376C58.2715 106.921 57.1611 108.03 57.1611 109.396C57.1611 110.763 58.2715 111.873 59.6376 111.873H72.2723Z" fill="var(--colors-category-mathematics-high1)"/>
<path fill-rule="evenodd" clip-rule="evenodd" d="M72.2723 130.441C73.6384 130.441 74.7477 129.331 74.7477 127.965C74.7477 126.599 73.6384 125.49 72.2723 125.49H59.6376C58.2715 125.49 57.1611 126.599 57.1611 127.965C57.1611 129.331 58.2715 130.441 59.6376 130.441H72.2723Z" fill="var(--colors-category-mathematics-high1)"/>
<path fill-rule="evenodd" clip-rule="evenodd" d="M72.2723 149.01C73.6384 149.01 74.7477 147.901 74.7477 146.535C74.7477 145.167 73.6384 144.058 72.2723 144.058H59.6376C58.2715 144.058 57.1611 145.167 57.1611 146.535C57.1611 147.901 58.2715 149.01 59.6376 149.01H72.2723Z" fill="var(--colors-category-mathematics-high1)"/>
<path fill-rule="evenodd" clip-rule="evenodd" d="M72.2723 167.579C73.6384 167.579 74.7477 166.47 74.7477 165.103C74.7477 163.736 73.6384 162.627 72.2723 162.627H59.6376C58.2715 162.627 57.1611 163.736 57.1611 165.103C57.1611 166.47 58.2715 167.579 59.6376 167.579H72.2723Z" fill="var(--colors-category-mathematics-high1)"/>
</g>
<path fill-rule="evenodd" clip-rule="evenodd" d="M260.406 53.0696C260.406 49.6539 257.633 46.8806 254.217 46.8806H204.708C201.292 46.8806 198.519 49.6539 198.519 53.0696V160.33C198.519 163.744 201.292 166.518 204.708 166.518H254.217C257.633 166.518 260.406 163.744 260.406 160.33V53.0696Z" fill="var(--colors-category-mathematics-high2)"/>
<path fill-rule="evenodd" clip-rule="evenodd" d="M154.006 135.765C154.006 134.639 153.092 133.725 151.967 133.725H135.647C134.521 133.725 133.607 134.639 133.607 135.765V164.478C133.607 165.604 134.521 166.518 135.647 166.518H151.967C153.092 166.518 154.006 165.604 154.006 164.478V135.765Z" fill="var(--colors-category-mathematics-high2)"/>
<path fill-rule="evenodd" clip-rule="evenodd" d="M80.5137 46.8807C80.5137 45.9599 81.2601 45.2134 82.181 45.2134H85.644C86.5648 45.2134 87.3113 45.9599 87.3113 46.8807C87.3113 47.8015 86.5648 48.548 85.644 48.548H82.181C81.2601 48.548 80.5137 47.8015 80.5137 46.8807ZM90.9028 46.8807C90.9028 45.9599 91.6492 45.2134 92.5701 45.2134H99.4961C100.417 45.2134 101.163 45.9599 101.163 46.8807C101.163 47.8015 100.417 48.548 99.4961 48.548H92.5701C91.6492 48.548 90.9028 47.8015 90.9028 46.8807ZM104.755 46.8807C104.755 45.9599 105.501 45.2134 106.422 45.2134H113.348C114.269 45.2134 115.016 45.9599 115.016 46.8807C115.016 47.8015 114.269 48.548 113.348 48.548H106.422C105.501 48.548 104.755 47.8015 104.755 46.8807ZM118.607 46.8807C118.607 45.9599 119.353 45.2134 120.274 45.2134H127.2C128.121 45.2134 128.868 45.9599 128.868 46.8807C128.868 47.8015 128.121 48.548 127.2 48.548H120.274C119.353 48.548 118.607 47.8015 118.607 46.8807ZM132.459 46.8807C132.459 45.9599 133.206 45.2134 134.126 45.2134H141.053C141.973 45.2134 142.72 45.9599 142.72 46.8807C142.72 47.8015 141.973 48.548 141.053 48.548H134.126C133.206 48.548 132.459 47.8015 132.459 46.8807ZM146.311 46.8807C146.311 45.9599 147.058 45.2134 147.979 45.2134H154.905C155.825 45.2134 156.572 45.9599 156.572 46.8807C156.572 47.8015 155.825 48.548 154.905 48.548H147.979C147.058 48.548 146.311 47.8015 146.311 46.8807ZM160.163 46.8807C160.163 45.9599 160.91 45.2134 161.831 45.2134H168.757C169.678 45.2134 170.424 45.9599 170.424 46.8807C170.424 47.8015 169.678 48.548 168.757 48.548H161.831C160.91 48.548 160.163 47.8015 160.163 46.8807ZM174.016 46.8807C174.016 45.9599 174.762 45.2134 175.683 45.2134H182.609C183.53 45.2134 184.276 45.9599 184.276 46.8807C184.276 47.8015 183.53 48.548 182.609 48.548H175.683C174.762 48.548 174.016 47.8015 174.016 46.8807ZM187.868 46.8807C187.868 45.9599 188.614 45.2134 189.535 45.2134H192.998C193.919 45.2134 194.665 45.9599 194.665 46.8807C194.665 47.8015 193.919 48.548 192.998 48.548H189.535C188.614 48.548 187.868 47.8015 187.868 46.8807Z" fill="var(--colors-category-mathematics-low2)"/>
<path fill-rule="evenodd" clip-rule="evenodd" d="M80.5137 133.725C80.5137 132.805 81.2601 132.058 82.181 132.058H86.0704C86.9912 132.058 87.7377 132.805 87.7377 133.725C87.7377 134.646 86.9912 135.393 86.0704 135.393H82.181C81.2601 135.393 80.5137 134.646 80.5137 133.725ZM92.1819 133.725C92.1819 132.805 92.9284 132.058 93.8492 132.058H101.628C102.549 132.058 103.295 132.805 103.295 133.725C103.295 134.646 102.549 135.393 101.628 135.393H93.8492C92.9284 135.393 92.1819 134.646 92.1819 133.725ZM107.74 133.725C107.74 132.805 108.486 132.058 109.407 132.058H117.186C118.107 132.058 118.853 132.805 118.853 133.725C118.853 134.646 118.107 135.393 117.186 135.393H109.407C108.486 135.393 107.74 134.646 107.74 133.725ZM123.297 133.725C123.297 132.805 124.044 132.058 124.965 132.058H128.854C129.775 132.058 130.521 132.805 130.521 133.725C130.521 134.646 129.775 135.393 128.854 135.393H124.965C124.044 135.393 123.297 134.646 123.297 133.725Z" fill="var(--colors-category-mathematics-low2)"/>
</svg>
