<?xml version="1.0" encoding="UTF-8" standalone="no"?>
<!-- Created with Inkscape (http://www.inkscape.org/) -->

<svg
   xmlns:dc="http://purl.org/dc/elements/1.1/"
   xmlns:cc="http://creativecommons.org/ns#"
   xmlns:rdf="http://www.w3.org/1999/02/22-rdf-syntax-ns#"
   xmlns:svg="http://www.w3.org/2000/svg"
   xmlns="http://www.w3.org/2000/svg"
   xmlns:sodipodi="http://sodipodi.sourceforge.net/DTD/sodipodi-0.dtd"
   xmlns:inkscape="http://www.inkscape.org/namespaces/inkscape"
   width="800mm"
   height="800mm"
   viewBox="0 0 800 800"
   version="1.1"
   id="svg8"
   inkscape:version="0.92.5 (2060ec1f9f, 2020-04-08)"
   sodipodi:docname="logo.svg">
  <defs
     id="defs2">
    <inkscape:path-effect
       effect="powerstroke"
       id="path-effect817"
       is_visible="true"
       offset_points="1,0.13229166"
       sort_points="true"
       interpolator_type="CubicBezierJohan"
       interpolator_beta="0.2"
       start_linecap_type="zerowidth"
       linejoin_type="extrp_arc"
       miter_limit="4"
       end_linecap_type="zerowidth" />
  </defs>
  <sodipodi:namedview
     id="base"
     pagecolor="#ffffff"
     bordercolor="#666666"
     borderopacity="1.0"
     inkscape:pageopacity="0.0"
     inkscape:pageshadow="2"
     inkscape:zoom="0.099671361"
     inkscape:cx="3055.05"
     inkscape:cy="2159.0123"
     inkscape:document-units="mm"
     inkscape:current-layer="layer1"
     showgrid="false"
     inkscape:window-width="1398"
     inkscape:window-height="851"
     inkscape:window-x="42"
     inkscape:window-y="25"
     inkscape:window-maximized="1" />
  <metadata
     id="metadata5">
    <rdf:RDF>
      <cc:Work
         rdf:about="">
        <dc:format>image/svg+xml</dc:format>
        <dc:type
           rdf:resource="http://purl.org/dc/dcmitype/StillImage" />
        <dc:title />
      </cc:Work>
    </rdf:RDF>
  </metadata>
  <g
     inkscape:label="Calque 1"
     inkscape:groupmode="layer"
     id="layer1"
     transform="translate(0,503)">
    <circle
       style="opacity:1;vector-effect:none;fill:#0000ff;fill-opacity:1;stroke:#ffffff;stroke-width:2.20085764;stroke-linecap:butt;stroke-linejoin:round;stroke-miterlimit:4;stroke-dasharray:none;stroke-dashoffset:0;stroke-opacity:1"
       id="path26"
       cx="400.1745"
       cy="-103.17449"
       r="399.07407" />
    <rect
       style="opacity:0.98000004;vector-effect:none;fill:#ffffff;fill-opacity:1;stroke:none;stroke-width:4.4877367;stroke-linecap:butt;stroke-linejoin:miter;stroke-miterlimit:4;stroke-dasharray:none;stroke-dashoffset:0;stroke-opacity:1"
       id="rect819"
       width="704.6192"
       height="82.906288"
       x="45.049332"
       y="-20.469688" />
    <rect
       style="opacity:0.98000004;vector-effect:none;fill:#ffffff;fill-opacity:1;stroke:none;stroke-width:2.20658708;stroke-linecap:butt;stroke-linejoin:miter;stroke-miterlimit:4;stroke-dasharray:none;stroke-dashoffset:0;stroke-opacity:1"
       id="rect819-3-6"
       width="239.31227"
       height="59.015274"
       x="-14.937734"
       y="650.14008"
       transform="rotate(-90)" />
    <rect
       style="opacity:0.98000004;vector-effect:none;fill:#ffffff;fill-opacity:1;stroke:none;stroke-width:2.20658708;stroke-linecap:butt;stroke-linejoin:miter;stroke-miterlimit:4;stroke-dasharray:none;stroke-dashoffset:0;stroke-opacity:1"
       id="rect819-3-6-7"
       width="239.31227"
       height="59.015274"
       x="-14.937734"
       y="79.942047"
       transform="rotate(-90)" />
    <g
       transform="matrix(0.48254273,0,0,0.47172088,295.96429,-282.36376)"
       id="g829">
      <polygon
         style="fill:#00b4d7"
         points="73.536,256.038 203.027,256.038 203.027,8.829 308.973,8.829 308.973,256.038 438.464,256.038 256,497.361 "
         id="polygon2"
         transform="translate(-55.793)" />
      <polygon
         style="fill:#0093c4"
         points="203.027,256.038 73.536,256.038 256,497.361 256,8.829 203.027,8.829 "
         id="polygon4"
         transform="translate(-55.793)" />
      <path
         d="M 200.207,512 0,247.209 H 138.405 V 0 H 262.009 V 247.209 H 400.414 Z M 35.487,264.867 200.207,482.721 364.927,264.866 H 244.351 V 17.658 h -88.289 v 247.209 z"
         id="path6"
         inkscape:connector-curvature="0" />
      <rect
         x="-451.38937"
         y="-101.06"
         transform="rotate(-127.30308)"
         style="fill:#ffffff;stroke-width:0.99994856"
         width="155.37201"
         height="17.656092"
         id="rect8" />
    </g>
  </g>
</svg>
